{
  "integrationFolder": "cypress/integration",
  "supportFile": "cypress/support/index.ts",
  "videosFolder": "cypress/videos",
  "screenshotsFolder": "cypress/screenshots",
  "pluginsFile": "cypress/plugins/index.js",
  "fixturesFolder": "cypress/fixtures",
  "baseUrl": "http://localhost:4200"
}

